Bridge Club de Grenoble 26 rue du Col. Dumont              38000 Grenoble
Ecole de bridge                                                            

Donne -   1  a              Donneur:N   Vul:P  Contrat:??XX/N   Entame:AP
                            Resultat:12   Commentaires                   
             P-A63          |N |E |S |O |                                
             C-X764         |1T|2T|3T|- |                                
             K-A42          |- |4T|4T|- |                                
             T-A64          |- |- |  |  |                                
                                                                         
P-V9            N       P- X                                             
C-D932         O E      C- ARV5                                          
K-R9853         S       K- 7                                             
T-D7                    T- RVX8532                                       
                                                                         
             P-RD87542                                                   
             C-8                                                         
             K-DVX6                                                      
             T-9                                                         
                                                                         

